[{
		"year": 2014,
		"data": {
			"b.1*g": 79058484.0,
			"p.3": 56418220.9,
			"p.3/hh_consumption": 41954831.1,
			"p.3/g_consumption": 14173198.5,
			"p.3/igs": 6177117.6,
			"p.32": 7996080.9,
			"p.3/nco": 290191.3,
			"p.5": 17883660.1,
			"p.51+p.53": 17115121.0,
			"p.52": 768539.1,
			"p.6-p.7": 5074399.1
		}
	},
	{
		"year": 2015,
		"data": {
			"b.1*g": 83094304.6,
			"p.3": 58240533.5,
			"p.3/hh_consumption": 43242320.3,
			"p.3/g_consumption": 14684126.2,
			"p.3/igs": 6407611.4,
			"p.32": 8276514.8,
			"p.3/nco": 314087.0,
			"p.5": 18603397.9,
			"p.51+p.53": 17325846.7,
			"p.52": 1277551.2,
			"p.6-p.7": 6700633.2
		}
	},
	{
		"year": 2016,
		"data": {
			"b.1*g": 86014204.3,
			"p.3": 61389774.1,
			"p.3/hh_consumption": 45317053.8,
			"p.3/g_consumption": 15728490.9,
			"p.3/igs": 6565091.8,
			"p.32": 9163399.1,
			"p.3/nco": 344229.4,
			"p.5": 20242855.7,
			"p.51+p.53": 18910543.3,
			"p.52": 1332312.4,
			"p.6-p.7": 4448603.4
		}
	},
	{
		"year": 2017,
		"data": {
			"b.1*g": 92101347.8,
			"p.3": 65165442.1,
			"p.3/hh_consumption": 48135665.4,
			"p.3/g_consumption": 16649198.2,
			"p.3/igs": 6820340.2,
			"p.32": 9828858.0,
			"p.3/nco": 380578.5,
			"p.5": 22189209.6,
			"p.51+p.53": 20571118.7,
			"p.52": 1618090.9,
			"p.6-p.7": 4921353.3
		}
	},
	{
		"year": 2018,
		"data": {
			"b.1*g": 103875800.4,
			"p.3": 69332988.5,
			"p.3/hh_consumption": 50851055.8,
			"p.3/g_consumption": 18049306.7,
			"p.3/igs": 7654180.1,
			"p.32": 10395126.6,
			"p.3/nco": 432626.0,
			"p.5": 23611223.6,
			"p.51+p.53": 22237431.5,
			"p.52": 1373792.1,
			"p.6-p.7": 10358252.2
		}
	}
]